…
``` r
#group data set per day
data_group<-group_by(data,date)
total_number_steps_per_date<-summarise(data_group,total_steps_per_day=sum(steps))
total_number_steps_per_date
```

    # A tibble: 53 x 2
             date total_steps_per_day
           <fctr>               <int>
     1 2012-10-02                 126
     2 2012-10-03               11352
     3 2012-10-04               12116
     4 2012-10-05               13294
     5 2012-10-06               15420
     6 2012-10-07               11015
     7 2012-10-09               12811
     8 2012-10-10                9900
     9 2012-10-11               10304
    10 2012-10-12               17382
    # ... with 43 more rows
…
1.  Make a time series plot (i.e. type = "l") of the 5-minute interval (x-axis) and the average number of steps taken, averaged across all days (y-axis)
2.  Which 5-minute interval, on average across all the days in the dataset, contains the maximum number of steps?

``` r
#calulate average number of steps taken per inteval
#group data per inteval
data_group_interval<-group_by(data,interval)
#summarise avearge numebr of steps per interval
intervalav_steps<-summarise(data_group_interval,avr_steps_interval=mean(steps))
intervalav_steps
```

    # A tibble: 288 x 2
       interval avr_steps_interval
          <int>              <dbl>
     1        0          1.7169811
     2        5          0.3396226
     3       10          0.1320755
     4       15          0.1509434
     5       20          0.0754717
     6       25          2.0943396
     7       30          0.5283019
     8       35          0.8679245
     9       40          0.0000000
    10       45          1.4716981
    # ... with 278 more rows
…
  }
}
```

Make a histogram of the total number of steps taken each day and Calculate and report the mean and median total number of steps taken per day. Do these values differ from the estimates from the first part of the assignment? What is the impact of imputing missing data on the estimates of the total daily number of steps?

``` r
filled_missing_data<-group_by(filldata,date)

total_number_steps_per_date_after_cleaning<-summarise(filled_missing_data,total=sum(steps))
total_number_steps_per_date_after_cleaning
```

    # A tibble: 61 x 2
             date    total
           <fctr>    <dbl>
     1 2012-10-01 10766.19
     2 2012-10-02   126.00
     3 2012-10-03 11352.00
     4 2012-10-04 12116.00
     5 2012-10-05 13294.00
     6 2012-10-06 15420.00
     7 2012-10-07 11015.00
     8 2012-10-08 10766.19
     9 2012-10-09 12811.00
    10 2012-10-10  9900.00
    # ... with 51 more rows
…
``` r
data_group_interval<-group_by(filled_missing_data,type_of_day,interval)
data_group_interval
```

    # A tibble: 17,568 x 4
    # Groups:   type_of_day, interval [576]
           steps       date interval type_of_day
           <dbl>     <fctr>    <int>       <chr>
     1 1.7169811 2012-10-01        0     Weekday
     2 0.3396226 2012-10-01        5     Weekday
     3 0.1320755 2012-10-01       10     Weekday
     4 0.1509434 2012-10-01       15     Weekday
     5 0.0754717 2012-10-01       20     Weekday
     6 2.0943396 2012-10-01       25     Weekday
     7 0.5283019 2012-10-01       30     Weekday
     8 0.8679245 2012-10-01       35     Weekday
     9 0.0000000 2012-10-01       40     Weekday
    10 1.4716981 2012-10-01       45     Weekday
    # ... with 17,558 more rows

``` r
intervalav_steps<-summarise(data_group_interval,avr_steps_interval=mean(steps))
intervalav_steps
```

    # A tibble: 576 x 3
    # Groups:   type_of_day [?]
       type_of_day interval avr_steps_interval
             <chr>    <int>              <dbl>
     1     Weekday        0         2.25115304
     2     Weekday        5         0.44528302
     3     Weekday       10         0.17316562
     4     Weekday       15         0.19790356
     5     Weekday       20         0.09895178
     6     Weekday       25         1.59035639
     7     Weekday       30         0.69266247
     8     Weekday       35         1.13794549
     9     Weekday       40         0.00000000
    10     Weekday       45         1.79622642
    # ... with 566 more rows
…
